{
    "openapi": "3.0.0",
    "info": {
        "title": "My First API",
        "version": "0.1"
    },
    "paths": {
        "/api/customers": {
            "get": {
                "operationId": "2b23ac696cfd81c23807c2c1fd63b0b0",
                "responses": {
                    "200": {
                        "description": "Get Users"
                    }
                }
            }
        }
    }
}